%!PS-Adobe-2.0 EPSF-2.0
%%BoundingBox:  0 0 567 544
%%Title: pics/dataAndFitAndDifference.eps: 
%%Creator: ROOT Version 5.26/00
%%CreationDate: Fri Dec 31 10:57:09 2010
%%EndComments
%%BeginProlog
80 dict begin
/s {stroke} def /l {lineto} def /m {moveto} def /t {translate} def
/sw {stringwidth} def /r {rotate} def /rl {roll}  def /R {repeat} def
/d {rlineto} def /rm {rmoveto} def /gr {grestore} def /f {eofill} def
/c {setrgbcolor} def /black {0 setgray} def /sd {setdash} def
/cl {closepath} def /sf {scalefont setfont} def /lw {setlinewidth} def
/box {m dup 0 exch d exch 0 d 0 exch neg d cl} def
/NC{systemdict begin initclip end}def/C{NC box clip newpath}def
/bl {box s} def /bf {box f} def /Y { 0 exch d} def /X { 0 d} def 
/mp {newpath /y exch def /x exch def} def
/side {[w .77 mul w .23 mul] .385 w mul sd w 0 l currentpoint t -144 r} def
/mr {mp x y w2 0 360 arc} def /m24 {mr s} def /m20 {mr f} def
/mb {mp x y w2 add m w2 neg 0 d 0 w neg d w 0 d 0 w d cl} def
/mt {mp x y w2 add m w2 neg w neg d w 0 d cl} def
/m21 {mb f} def /m25 {mb s} def /m22 {mt f} def /m26{mt s} def
/m23 {mp x y w2 sub m w2 w d w neg 0 d cl f} def
/m27 {mp x y w2 add m w3 neg w2 neg d w3 w2 neg d w3 w2 d cl s} def
/m28 {mp x w2 sub y w2 sub w3 add m w3 0 d  0 w3 neg d w3 0 d 0 w3 d w3 0 d  0 w3 d w3 neg 0 d 0 w3 d w3 neg 0 d
 0 w3 neg d w3 neg 0 d cl s } def
/m29 {mp gsave x w2 sub y w2 add w3 sub m currentpoint t
 4 {side} repeat cl fill gr} def
/m30 {mp gsave x w2 sub y w2 add w3 sub m currentpoint t
 4 {side} repeat cl s gr} def
/m31 {mp x y w2 sub m 0 w d x w2 sub y m w 0 d x w2 sub y w2 add m w w neg d x w2 sub y w2
 sub m w w d s} def
/m2 {mp x y w2 sub m 0 w d x w2 sub y m w 0 d s} def
/m5 {mp x w2 sub y w2 sub m w w d x w2 sub y w2 add m w w neg d s} def
/reEncode {exch findfont dup length dict begin {1 index /FID eq  {pop pop} {def} ifelse } forall /Encoding exch def currentdict end dup /FontName get exch definefont pop } def [/Times-Bold /Times-Italic /Times-BoldItalic /Helvetica
 /Helvetica-Oblique /Helvetica-Bold /Helvetica-BoldOblique /Courier /Courier-Oblique /Courier-Bold /Courier-BoldOblique /Times-Roman /AvantGarde-Book /AvantGarde-BookOblique /AvantGarde-Demi /AvantGarde-DemiOblique /Bookman-Demi
 /Bookman-DemiItalic /Bookman-Light /Bookman-LightItalic /Helvetica-Narrow /Helvetica-Narrow-Bold /Helvetica-Narrow-BoldOblique /Helvetica-Narrow-Oblique /NewCenturySchlbk-Roman /NewCenturySchlbk-Bold
 /NewCenturySchlbk-BoldItalic /NewCenturySchlbk-Italic /Palatino-Bold /Palatino-BoldItalic /Palatino-Italic /Palatino-Roman ] {ISOLatin1Encoding reEncode } forall
/oshow {gsave [] 0 sd true charpath stroke gr} def
/stwn { /fs exch def /fn exch def /text exch def fn findfont fs sf
 text sw pop xs add /xs exch def} def
/stwb { /fs exch def /fn exch def /nbas exch def /textf exch deftextf length /tlen exch def nbas tlen gt {/nbas tlendef} iffn findfont fs sf textf dup length nbas sub nbas getinterval sw
pop neg xs add /xs exch def} def
%%EndProlog
%%BeginSetup
%%EndSetup
newpath  gsave  .25 .25 scale  gsave  0 0 t black[  ] 0 sd 3 lw 1 1 1 c 2268 2176 0 0 bf black 1 1 1 c 2268 1762 0 414 bf black 1 1 1 c 1791 1445 363 643 bf black 1791 1445 363 643 bl 1 1 1 c 1791 1445 363 643 bf black 1791 1445 363 643 bl 1 0 0 c 6
 lw 1 1 1 c 1 0 0 c 363 2012 m 45 X -33 Y 44 X -33 Y 45 X -33 Y 45 X -33 Y 45 X -33 Y 45 X -33 Y 44 X -33 Y 45 X -33 Y 45 X -33 Y 45 X -33 Y 44 X -33 Y 45 X -33 Y 45 X -33 Y 45 X -33 Y 45 X -33 Y 44 X -33 Y 45 X -33 Y 45 X -33 Y 45 X -33 Y 45 X -33
 Y 44 X -33 Y 45 X -33 Y 45 X -33 Y 45 X -33 Y 45 X -33 Y 44 X -33 Y 45 X -33 Y 45 X -32 Y 45 X -33 Y 44 X -33 Y 45 X -33 Y 45 X -33 Y 45 X -33 Y 45 X -33 Y 44 X -33 Y 45 X -33 Y 45 X -33 Y 45 X -33 Y 45 X -33 Y 44 X s black 3 lw 363 643 m 1791 X s
 363 684 m -41 Y s 452 664 m -21 Y s 542 664 m -21 Y s 632 664 m -21 Y s 721 684 m -41 Y s 811 664 m -21 Y s 900 664 m -21 Y s 990 664 m -21 Y s 1079 684 m -41 Y s 1169 664 m -21 Y s 1259 664 m -21 Y s 1348 664 m -21 Y s 1438 684 m -41 Y s 1527 664
 m -21 Y s 1617 664 m -21 Y s 1706 664 m -21 Y s 1796 684 m -41 Y s 1886 664 m -21 Y s 1975 664 m -21 Y s 2065 664 m -21 Y s 2154 684 m -41 Y s
 gsave  2268 1762 0 414 C 316 578 t 0 r /Helvetica findfont 64.7279 sf 0 0 m (0.0) show NC gr 
 gsave  2268 1762 0 414 C 673 578 t 0 r /Helvetica findfont 64.7279 sf 0 0 m (0.2) show NC gr 
 gsave  2268 1762 0 414 C 1031 578 t 0 r /Helvetica findfont 64.7279 sf 0 0 m (0.4) show NC gr 
 gsave  2268 1762 0 414 C 1389 578 t 0 r /Helvetica findfont 64.7279 sf 0 0 m (0.6) show NC gr 
 gsave  2268 1762 0 414 C 1750 578 t 0 r /Helvetica findfont 64.7279 sf 0 0 m (0.8) show NC gr 
 gsave  2268 1762 0 414 C 2108 578 t 0 r /Helvetica findfont 64.7279 sf 0 0 m (1.0) show NC gr  363 2088 m 1791 X s 363 2046 m 42 Y s 452 2067 m 21 Y s 542 2067 m 21 Y s 632 2067 m 21 Y s 721 2046 m 42 Y s 811 2067 m 21 Y s 900 2067 m 21 Y s 990
 2067 m 21 Y s 1079 2046 m 42 Y s 1169 2067 m 21 Y s 1259 2067 m 21 Y s 1348 2067 m 21 Y s 1438 2046 m 42 Y s 1527 2067 m 21 Y s 1617 2067 m 21 Y s 1706 2067 m 21 Y s 1796 2046 m 42 Y s 1886 2067 m 21 Y s 1975 2067 m 21 Y s 2065 2067 m 21 Y s 2154
 2046 m 42 Y s 363 643 m 1445 Y s
 gsave  2268 1762 0 414 C 156 1834 t 90 r /Helvetica findfont 83.7655 sf 0 0 m (Events) show NC gr  391 672 m -28 X s 391 706 m -28 X s 391 733 m -28 X s 391 755 m -28 X s 391 773 m -28 X s 391 789 m -28 X s 391 803 m -28 X s 419 816 m -56 X s
 gsave  2268 1762 0 414 C 301 814 t 0 r /Helvetica findfont 45.6903 sf 0 0 m (\2552) show NC gr 
 gsave  2268 1762 0 414 C 228 788 t 0 r /Helvetica findfont 64.7279 sf 0 0 m (10) show NC gr  391 899 m -28 X s 391 948 m -28 X s 391 983 m -28 X s 391 1009 m -28 X s 391 1031 m -28 X s 391 1050 m -28 X s 391 1066 m -28 X s 391 1080 m -28 X s 419
 1093 m -56 X s
 gsave  2268 1762 0 414 C 308 1092 t 0 r /Helvetica findfont 45.6903 sf 0 0 m (\2551) show NC gr 
 gsave  2268 1762 0 414 C 236 1065 t 0 r /Helvetica findfont 64.7279 sf 0 0 m (10) show NC gr  391 1176 m -28 X s 391 1225 m -28 X s 391 1259 m -28 X s 391 1286 m -28 X s 391 1308 m -28 X s 391 1326 m -28 X s 391 1342 m -28 X s 391 1356 m -28 X s
 419 1369 m -56 X s
 gsave  2268 1762 0 414 C 344 1342 t 0 r  -26 0 t /Helvetica findfont 64.7279 sf 0 0 m (1) show NC gr  391 1452 m -28 X s 391 1501 m -28 X s 391 1536 m -28 X s 391 1562 m -28 X s 391 1584 m -28 X s 391 1603 m -28 X s 391 1619 m -28 X s 391 1633 m
 -28 X s 419 1646 m -56 X s
 gsave  2268 1762 0 414 C 344 1618 t 0 r  -72 0 t /Helvetica findfont 64.7279 sf 0 0 m (10) show NC gr  391 1729 m -28 X s 391 1778 m -28 X s 391 1812 m -28 X s 391 1839 m -28 X s 391 1861 m -28 X s 391 1879 m -28 X s 391 1895 m -28 X s 391 1910 m
 -28 X s 419 1922 m -56 X s
 gsave  2268 1762 0 414 C 316 1921 t 0 r /Helvetica findfont 45.6903 sf 0 0 m (2) show NC gr 
 gsave  2268 1762 0 414 C 244 1895 t 0 r /Helvetica findfont 64.7279 sf 0 0 m (10) show NC gr  391 2005 m -28 X s 391 2054 m -28 X s 2154 643 m 1445 Y s 2126 672 m 28 X s 2126 706 m 28 X s 2126 733 m 28 X s 2126 755 m 28 X s 2126 773 m 28 X s 2126
 789 m 28 X s 2126 803 m 28 X s 2099 816 m 55 X s 2126 899 m 28 X s 2126 948 m 28 X s 2126 983 m 28 X s 2126 1009 m 28 X s 2126 1031 m 28 X s 2126 1050 m 28 X s 2126 1066 m 28 X s 2126 1080 m 28 X s 2099 1093 m 55 X s 2126 1176 m 28 X s 2126 1225 m
 28 X s 2126 1259 m 28 X s 2126 1286 m 28 X s 2126 1308 m 28 X s 2126 1326 m 28 X s 2126 1342 m 28 X s 2126 1356 m 28 X s 2099 1369 m 55 X s 2126 1452 m 28 X s 2126 1501 m 28 X s 2126 1536 m 28 X s 2126 1562 m 28 X s 2126 1584 m 28 X s 2126 1603 m
 28 X s 2126 1619 m 28 X s 2126 1633 m 28 X s 2099 1646 m 55 X s 2126 1729 m 28 X s 2126 1778 m 28 X s 2126 1812 m 28 X s 2126 1839 m 28 X s 2126 1861 m 28 X s 2126 1879 m 28 X s 2126 1895 m 28 X s 2126 1910 m 28 X s 2099 1922 m 55 X s 2126 2005 m
 28 X s 2126 2054 m 28 X s 6 lw 1 1 1 c black 363 2012 m 7 X s 400 2012 m 8 X s 3 lw /w 29 def /w2 {w 2 div} def /w3 {w 3 div} def 385 2012 m20 6 lw 408 1972 m 7 X s 445 1972 m 7 X s 3 lw 430 1972 m20 6 lw 452 1939 m 8 X s 490 1939 m 7 X s 3 lw 475
 1939 m20 6 lw 497 1920 m 7 X s 535 1920 m 7 X s 3 lw 520 1920 m20 6 lw 542 1889 m 7 X s 580 1889 m 7 X s 3 lw 564 1889 m20 6 lw 609 1833 m 2 Y s 587 1850 m 7 X s 624 1850 m 8 X s 3 lw 609 1850 m20 6 lw 654 1785 m 6 Y s 654 1821 m 3 Y s 632 1806 m 7
 X s 669 1806 m 7 X s 3 lw 654 1806 m20 6 lw 699 1774 m 7 Y s 699 1811 m 4 Y s 676 1796 m 8 X s 714 1796 m 7 X s 3 lw 699 1796 m20 6 lw 744 1739 m 11 Y s 744 1780 m 6 Y s 721 1765 m 7 X s 759 1765 m 7 X s 3 lw 744 1765 m20 6 lw 788 1739 m 11 Y s 788
 1780 m 6 Y s 766 1765 m 7 X s 804 1765 m 7 X s 3 lw 788 1765 m20 6 lw 833 1649 m 22 Y s 833 1701 m 14 Y s 811 1686 m 7 X s 848 1686 m 7 X s 3 lw 833 1686 m20 6 lw 878 1649 m 22 Y s 878 1701 m 14 Y s 855 1686 m 8 X s 893 1686 m 7 X s 3 lw 878 1686
 m20 6 lw 923 1566 m 38 Y s 923 1634 m 21 Y s 900 1619 m 7 X s 938 1619 m 7 X s 3 lw 923 1619 m20 6 lw 967 1521 m 48 Y s 967 1600 m 25 Y s 945 1584 m 7 X s 983 1584 m 7 X s 3 lw 967 1584 m20 6 lw 1012 1305 m 132 Y s 1012 1468 m 49 Y s 990 1452 m 7 X
 s 1027 1452 m 8 X s 3 lw 1012 1452 m20 6 lw 1057 643 m 711 Y s 1057 1384 m 68 Y s 1035 1369 m 7 X s 1072 1369 m 7 X s 3 lw 1057 1369 m20 6 lw 1102 1398 m 88 Y s 1102 1516 m 40 Y s 1079 1501 m 8 X s 1117 1501 m 7 X s 3 lw 1102 1501 m20 6 lw 1147
 1452 m 68 Y s 1147 1551 m 33 Y s 1124 1536 m 7 X s 1162 1536 m 7 X s 3 lw 1147 1536 m20 6 lw 1236 1305 m 132 Y s 1236 1468 m 49 Y s 1214 1452 m 7 X s 1251 1452 m 8 X s 3 lw 1236 1452 m20 6 lw 1326 1452 m 68 Y s 1326 1551 m 33 Y s 1303 1536 m 8 X s
 1341 1536 m 7 X s 3 lw 1326 1536 m20 6 lw 1505 643 m 711 Y s 1505 1384 m 68 Y s 1483 1369 m 7 X s 1520 1369 m 7 X s 3 lw 1505 1369 m20 6 lw 1550 1452 m 68 Y s 1550 1551 m 33 Y s 1527 1536 m 7 X s 1565 1536 m 7 X s 3 lw 1550 1536 m20 6 lw 1594 643 m
 711 Y s 1594 1384 m 68 Y s 1572 1369 m 7 X s 1610 1369 m 7 X s 3 lw 1594 1369 m20 6 lw 0 0 1 c 1483 643 m 1369 Y s 1617 643 m 1369 Y s black 3 lw 1 1 1 c 2268 653 0 0 bf black 1 1 1 c 1791 424 363 229 bf black 1791 424 363 229 bl 1 1 1 c 1791 424
 363 229 bf black 1791 424 363 229 bl 6 lw 1 0 0 c black 3 lw 1 0 0 c 363 295 m 4 Y 45 X -29 Y 44 X 4 Y 45 X 42 Y 45 X 4 Y 45 X -17 Y 45 X -22 Y 44 X 41 Y 90 X 52 Y 45 X -74 Y 44 X 37 Y 45 X -40 Y 45 X -1 Y 45 X -44 Y 45 X -4 Y 44 X 56 Y 45 X 43 Y
 45 X -96 Y 45 X 73 Y 45 X -63 Y 44 X 182 Y 45 X -174 Y 45 X 4 Y 45 X 3 Y 45 X 79 Y 44 X 278 Y 45 X -250 Y 45 X -99 Y 45 X 1 Y 44 X 2 Y 45 X 1 Y 45 X 1 Y 90 X 1 Y 44 X 1 Y 90 X 1 Y 90 X 1 Y 44 X 2 Y f 6 lw black 1 0 0 c black 363 299 m 45 X -29 Y 44
 X 4 Y 45 X 42 Y 45 X 4 Y 45 X -17 Y 45 X -22 Y 44 X 41 Y 90 X 52 Y 45 X -74 Y 44 X 37 Y 45 X -40 Y 45 X -1 Y 45 X -44 Y 45 X -4 Y 44 X 56 Y 45 X 43 Y 45 X -96 Y 45 X 73 Y 45 X -63 Y 44 X 182 Y 45 X -174 Y 45 X 4 Y 45 X 3 Y 45 X 79 Y 44 X 278 Y 45 X
 -250 Y 45 X -99 Y 45 X 1 Y 44 X 2 Y 45 X 1 Y 45 X 1 Y 90 X 1 Y 44 X 1 Y 90 X 1 Y 90 X 1 Y 44 X s 3 lw 363 229 m 1791 X s
 gsave  2268 653 0 0 C 2108 46 t 0 r /Helvetica findfont 91.6379 sf 0 0 m (x) show NC gr  363 244 m -15 Y s 452 236 m -7 Y s 542 236 m -7 Y s 632 236 m -7 Y s 721 244 m -15 Y s 811 236 m -7 Y s 900 236 m -7 Y s 990 236 m -7 Y s 1079 244 m -15 Y s
 1169 236 m -7 Y s 1259 236 m -7 Y s 1348 236 m -7 Y s 1438 244 m -15 Y s 1527 236 m -7 Y s 1617 236 m -7 Y s 1706 236 m -7 Y s 1796 244 m -15 Y s 1886 236 m -7 Y s 1975 236 m -7 Y s 2065 236 m -7 Y s 2154 244 m -15 Y s
 gsave  2268 653 0 0 C 297 148 t 0 r /Helvetica findfont 91.6379 sf 0 0 m (0.0) show NC gr 
 gsave  2268 653 0 0 C 654 148 t 0 r /Helvetica findfont 91.6379 sf 0 0 m (0.2) show NC gr 
 gsave  2268 653 0 0 C 1012 148 t 0 r /Helvetica findfont 91.6379 sf 0 0 m (0.4) show NC gr 
 gsave  2268 653 0 0 C 1370 148 t 0 r /Helvetica findfont 91.6379 sf 0 0 m (0.6) show NC gr 
 gsave  2268 653 0 0 C 1731 148 t 0 r /Helvetica findfont 91.6379 sf 0 0 m (0.8) show NC gr 
 gsave  2268 653 0 0 C 2089 148 t 0 r /Helvetica findfont 91.6379 sf 0 0 m (1.0) show NC gr  363 653 m 1791 X s 363 637 m 16 Y s 452 645 m 8 Y s 542 645 m 8 Y s 632 645 m 8 Y s 721 637 m 16 Y s 811 645 m 8 Y s 900 645 m 8 Y s 990 645 m 8 Y s 1079
 637 m 16 Y s 1169 645 m 8 Y s 1259 645 m 8 Y s 1348 645 m 8 Y s 1438 637 m 16 Y s 1527 645 m 8 Y s 1617 645 m 8 Y s 1706 645 m 8 Y s 1796 637 m 16 Y s 1886 645 m 8 Y s 1975 645 m 8 Y s 2065 645 m 8 Y s 2154 637 m 16 Y s 363 229 m 424 Y s
 gsave  2268 653 0 0 C 236 597 t 90 r /Helvetica findfont 91.6379 sf 0 0 m (B) show NC gr  6 lw 167 540 m 69 38 d s 0 lw 236 578 m -95 12 d s 141 590 m 63 Y s
 gsave  2268 653 0 0 C 236 205 t 90 r /Helvetica findfont 91.6379 sf 0 0 m (\(D \255 B\) / ) show NC gr  3 lw 407 295 m -44 X s 374 313 m -11 X s 385 331 m -22 X s 374 349 m -11 X s 385 367 m -22 X s 374 385 m -11 X s 385 403 m -22 X s 374 421 m -11
 X s 385 439 m -22 X s 374 457 m -11 X s 407 475 m -44 X s 407 295 m -44 X s 374 277 m -11 X s 385 259 m -22 X s 374 241 m -11 X s 407 475 m -44 X s 374 493 m -11 X s 385 511 m -22 X s 374 529 m -11 X s 385 547 m -22 X s 374 565 m -11 X s 385 583 m
 -22 X s 374 601 m -11 X s 385 619 m -22 X s 374 637 m -11 X s
 gsave  2268 653 0 0 C 301 263 t 0 r /Helvetica findfont 91.6379 sf 0 0 m (0) show NC gr 
 gsave  2268 653 0 0 C 301 441 t 0 r /Helvetica findfont 91.6379 sf 0 0 m (5) show NC gr  2154 229 m 424 Y s 2110 295 m 44 X s 2143 313 m 11 X s 2132 331 m 22 X s 2143 349 m 11 X s 2132 367 m 22 X s 2143 385 m 11 X s 2132 403 m 22 X s 2143 421 m 11
 X s 2132 439 m 22 X s 2143 457 m 11 X s 2110 475 m 44 X s 2110 295 m 44 X s 2143 277 m 11 X s 2132 259 m 22 X s 2143 241 m 11 X s 2110 475 m 44 X s 2143 493 m 11 X s 2132 511 m 22 X s 2143 529 m 11 X s 2132 547 m 22 X s 2143 565 m 11 X s 2132 583 m
 22 X s 2143 601 m 11 X s 2132 619 m 22 X s 2143 637 m 11 X s 0 0 1 c 6 lw 1483 248 m 385 Y s 1617 248 m 385 Y s
 gr  gr 
showpage
end
%%EOF
